统计数据分析及可视化(讲义) - 2 数据操作
…
base 里面的分组统计操作

aveVec = tapply(mpg$hwy, INDEX = mpg$drv, FUN = mean)
aveVec

       4        f        r 
19.17476 28.16038 21.00000 

管道操作

d1 <- mpg %>%  
group_by(drv)
d1

# A tibble: 234 × 11
# Groups:   drv [3]
   manufacturer model      displ  year   cyl trans drv     cty   hwy fl    class
   <chr>        <chr>      <dbl> <int> <int> <chr> <chr> <int> <int> <chr> <chr>
 1 audi         a4           1.8  1999     4 auto… f        18    29 p     comp…
 2 audi         a4           1.8  1999     4 manu… f        21    29 p     comp…
 3 audi         a4           2    2008     4 manu… f        20    31 p     comp…
 4 audi         a4           2    2008     4 auto… f        21    30 p     comp…
 5 audi         a4           2.8  1999     6 auto… f        16    26 p     comp…
 6 audi         a4           2.8  1999     6 manu… f        18    26 p     comp…
 7 audi         a4           3.1  2008     6 auto… f        18    27 p     comp…
 8 audi         a4 quattro   1.8  1999     4 manu… 4        18    26 p     comp…
 9 audi         a4 quattro   1.8  1999     4 auto… 4        16    25 p     comp…
10 audi         a4 quattro   2    2008     4 manu… 4        20    28 p     comp…
# ℹ 224 more rows
…
[1] 103 106  25

2.4 filter函数

mpg数据以drv分组，找到各组数据hwy值大于均值+标准差的样本

体会group_by与group_split的区别

mpg  %>% 
group_by(drv)  %>% 
filter(hwy > mean(hwy)+sd(hwy))

# A tibble: 40 × 11
# Groups:   drv [3]
   manufacturer model      displ  year   cyl trans drv     cty   hwy fl    class
   <chr>        <chr>      <dbl> <int> <int> <chr> <chr> <int> <int> <chr> <chr>
 1 audi         a4 quattro   1.8  1999     4 manu… 4        18    26 p     comp…
 2 audi         a4 quattro   1.8  1999     4 auto… 4        16    25 p     comp…
 3 audi         a4 quattro   2    2008     4 manu… 4        20    28 p     comp…
 4 audi         a4 quattro   2    2008     4 auto… 4        19    27 p     comp…
 5 audi         a4 quattro   2.8  1999     6 auto… 4        15    25 p     comp…
 6 audi         a4 quattro   2.8  1999     6 manu… 4        17    25 p     comp…
 7 audi         a4 quattro   3.1  2008     6 auto… 4        17    25 p     comp…
 8 audi         a4 quattro   3.1  2008     6 manu… 4        15    25 p     comp…
 9 audi         a6 quattro   2.8  1999     6 auto… 4        15    24 p     mids…
10 audi         a6 quattro   3.1  2008     6 auto… 4        17    25 p     mids…
# ℹ 30 more rows

mpg  %>% 
group_split(drv) %>% 
map(~filter(.x, hwy >mean(hwy)+sd(hwy)))

[[1]]
# A tibble: 23 × 11
   manufacturer model      displ  year   cyl trans drv     cty   hwy fl    class
   <chr>        <chr>      <dbl> <int> <int> <chr> <chr> <int> <int> <chr> <chr>
 1 audi         a4 quattro   1.8  1999     4 manu… 4        18    26 p     comp…
 2 audi         a4 quattro   1.8  1999     4 auto… 4        16    25 p     comp…
 3 audi         a4 quattro   2    2008     4 manu… 4        20    28 p     comp…
 4 audi         a4 quattro   2    2008     4 auto… 4        19    27 p     comp…
 5 audi         a4 quattro   2.8  1999     6 auto… 4        15    25 p     comp…
 6 audi         a4 quattro   2.8  1999     6 manu… 4        17    25 p     comp…
 7 audi         a4 quattro   3.1  2008     6 auto… 4        17    25 p     comp…
 8 audi         a4 quattro   3.1  2008     6 manu… 4        15    25 p     comp…
 9 audi         a6 quattro   2.8  1999     6 auto… 4        15    24 p     mids…
10 audi         a6 quattro   3.1  2008     6 auto… 4        17    25 p     mids…
# ℹ 13 more rows
…
mpg  %>% 
group_split(drv) %>% 
map(~filter(.x, .x$hwy >mean(.x$hwy)+sd(.x$hwy)))

[[1]]
# A tibble: 23 × 11
   manufacturer model      displ  year   cyl trans drv     cty   hwy fl    class
   <chr>        <chr>      <dbl> <int> <int> <chr> <chr> <int> <int> <chr> <chr>
 1 audi         a4 quattro   1.8  1999     4 manu… 4        18    26 p     comp…
 2 audi         a4 quattro   1.8  1999     4 auto… 4        16    25 p     comp…
 3 audi         a4 quattro   2    2008     4 manu… 4        20    28 p     comp…
 4 audi         a4 quattro   2    2008     4 auto… 4        19    27 p     comp…
 5 audi         a4 quattro   2.8  1999     6 auto… 4        15    25 p     comp…
 6 audi         a4 quattro   2.8  1999     6 manu… 4        17    25 p     comp…
 7 audi         a4 quattro   3.1  2008     6 auto… 4        17    25 p     comp…
 8 audi         a4 quattro   3.1  2008     6 manu… 4        15    25 p     comp…
 9 audi         a6 quattro   2.8  1999     6 auto… 4        15    24 p     mids…
10 audi         a6 quattro   3.1  2008     6 auto… 4        17    25 p     mids…
# ℹ 13 more rows
…
