统计数据分析及可视化(讲义) - 3 ggplot2 画图系统
…
几何对象ggplot2绘图系统中全局与局部的规定

ggplot()中的数据和映射是全局的，可供所有几何对象共用

位于几何对象中的数据和映射，是局部的，只供该几何对象使用

几何对象优先使用局部的，局部没有则用全局的

例：针对分省数据绘制人均GDP与年份之间的折线图，每个年份都对应31个省份人均GDP值

load("../slides2024/Lecture2/data/ecostats.rda")
ecostats

# A tibble: 527 × 7
   Region  Year Electricity Investment Consumption Population gdpPercap
   <chr>  <int>       <dbl>      <dbl>       <dbl>      <dbl>     <dbl>
 1 安徽    2001       360.        893.        2739       6128     5716.
 2 北京    2001       400.       1513.        9057       1385    27881.
 3 福建    2001       439.       1173.        4770       3445    11823.
 4 甘肃    2001       306.        460.        2099       2523     4461.
 5 广东    2001      1458.       3484.        5445       8733    13886.
 6 广西    2001       332.        656.        2572       4788     4760.
 7 贵州    2001       335.        536.        2178       3799     2983.
 8 海南    2001        43.0       213.        2971        796     7276.
 9 河北    2001       868.       1913.        2749       6699     7558.
10 河南    2001       808.       1544.        2381       9555     5791.
# ℹ 517 more rows
…
